{
    "/css/app.css": "/css/app.css?id=927343f20a3b349a222c",
    "/css/management.css": "/css/management.css?id=dc7f00b2a77a8c698905",
    "/css/comtor.css": "/css/comtor.css?id=9901a548b468fccbb540",
    "/mix.js.map": "/mix.js.map?id=35e31b715877507dc911",
    "/css/app.css.map": "/css/app.css.map?id=9f782abe0da8bf17c0e7",
    "/css/management.css.map": "/css/management.css.map?id=e90614b74951ab0b268c",
    "/css/comtor.css.map": "/css/comtor.css.map?id=b2e29b1239940524e3ec",
    "/js/base.js": "/js/base.js?id=9904023fca6092076df5"
}
